{
    "appDetail":{
        "appName":"币趣",
        "appShortName":"币趣",
        "showUrl":"www.bo-ll.com",
        "officialWeb":"http://www.bo-ll.com",
        "officialDownLoadAddress":"http://www.bo-ll.com",
        "domainName":"121.40.205.175",
        "umengAppkey":"5715d515e0f55a5fb20017bb",
        "shareSDKAppkey":"11ded19d0a819",
        "qZoneAppkey":"1105251841",
        "qZoneSecret":"50MFfb3Ufr7agGiT",
        "weChatAppkey":"wx6e3c7a4d99209f98",
        "weChatSecret":"50aae6272ba6fee2a45470cb0aa59f0c",
        "sinaWeiboAppkey":"3780869722",
        "sinaWeiboSecret":"ab7295b684151fc9c482528fdbb8071f",
        "sinaWeiboRedirectUri":"http://sns.whalecloud.com/sina2/callback",
        "shareIconName":"biquIcon",
        "zfbAccount":"1412023617@qq.com",
        "zfbName":"上海铂莱利投资管理咨询有限公司",
        "pkgtype":"cainiu",
        "regSource":"20000",
        "payBankName":"招商银行-宁波鄞州支行",
        "payCompanyName":"上海铂莱利投资管理咨询有限公司",
        "payBankShowNumber":"5749 0535 8210 301",
        "payBankNumber":"574905358210301",
        "aliyunDomainAddress":"http://cainiu.oss-cn-hangzhou.aliyuncs.com/link/bo-lldomain.txt",
        "HTTP_IP_ONLINE":"stock.cainiu.com",
        "HTTP_IP_TEST":"stock.luckin.cn",
        "HTTP_IP_SIMULATE":"m.luckin.cn"

    },
    "appStyle":"0" }
